[gd_scene load_steps=6 format=3 uid="uid://djnsqh3ghtmtp"]

[ext_resource type="Script" path="res://world_item/training_gallery/training_target.gd" id="1"]
[ext_resource type="Script" path="res://interfaces/i_interact.gd" id="2"]
[ext_resource type="Material" path="res://assets/reference/asdf1_Beta_HighLimbsGeoSG2.material" id="3_e2yau"]

[sub_resource type="SphereMesh" id="1"]

[sub_resource type="SphereShape3D" id="2"]

[node name="TrainingTarget" type="CharacterBody3D" groups=["ANTI_DECAL_BULLET"]]
script = ExtResource("1")

[node name="IInteract" type="Node" parent="."]
script = ExtResource("2")

[node name="MeshInstance3D" type="MeshInstance3D" parent="."]
material_override = ExtResource("3_e2yau")
cast_shadow = 0
mesh = SubResource("1")

[node name="CollisionShape3D" type="CollisionShape3D" parent="."]
shape = SubResource("2")
