[gd_scene load_steps=3 format=3 uid="uid://c8njvav02e0qo"]

[ext_resource type="Shader" path="res://materials/blurshader.gdshader" id="1_g23pk"]

[sub_resource type="ShaderMaterial" id="ShaderMaterial_20hj4"]
shader = ExtResource("1_g23pk")
shader_parameter/blur_intensity = 4.0

[node name="BlurRect" type="ColorRect"]
material = SubResource("ShaderMaterial_20hj4")
