[gd_scene load_steps=5 format=3 uid="uid://2kmk3tv1cs2d"]

[ext_resource type="Shader" path="res://player/god_mode.gdshader" id="1_4u3en"]
[ext_resource type="Script" path="res://ui/god_mode_canvas_layer.gd" id="1_7x0i1"]
[ext_resource type="Texture2D" uid="uid://bsbq35dcheh2g" path="res://materials/palette.png" id="3_2px7y"]

[sub_resource type="ShaderMaterial" id="ShaderMaterial_0qmd8"]
shader = ExtResource("1_4u3en")
shader_parameter/palette = ExtResource("3_2px7y")

[node name="GodModeCanvasLayer" type="CanvasLayer"]
script = ExtResource("1_7x0i1")

[node name="ColorRect" type="ColorRect" parent="."]
visible = false
material = SubResource("ShaderMaterial_0qmd8")
anchors_preset = 15
anchor_right = 1.0
anchor_bottom = 1.0
grow_horizontal = 2
grow_vertical = 2
mouse_filter = 2
