[gd_scene load_steps=2 format=3 uid="uid://dpcgsrc58r8rd"]

[ext_resource type="Script" path="res://ui/level_item.gd" id="1"]

[node name="LevelItem" type="PanelContainer"]
offset_right = 1365.0
offset_bottom = 65.0
script = ExtResource("1")

[node name="MarginContainer" type="MarginContainer" parent="."]
layout_mode = 2
theme_override_constants/margin_left = 10
theme_override_constants/margin_top = 10
theme_override_constants/margin_right = 10
theme_override_constants/margin_bottom = 10

[node name="HBoxContainer" type="HBoxContainer" parent="MarginContainer"]
layout_mode = 2

[node name="Label" type="Label" parent="MarginContainer/HBoxContainer"]
unique_name_in_owner = true
layout_mode = 2
size_flags_horizontal = 3
text = "TRAINING LEVEL"

[node name="SelectButton" type="Button" parent="MarginContainer/HBoxContainer"]
layout_mode = 2
text = "Select"

[connection signal="pressed" from="MarginContainer/HBoxContainer/SelectButton" to="." method="_on_SelectButton_pressed"]
