[gd_scene load_steps=2 format=2]

[ext_resource path="res://ui/training_history_rst_value_row.gd" type="Script" id=1]

[node name="TrainingHistoryRSTValueRow" type="HBoxContainer"]
offset_right = 1286.0
offset_bottom = 25.0
script = ExtResource( 1 )

[node name="NumberLabel" type="Label" parent="."]
offset_right = 59.0
offset_bottom = 25.0
size_flags_horizontal = 3
size_flags_stretch_ratio = 0.2
text = "1"

[node name="CreatedDateTimeLabel" type="Label" parent="."]
offset_left = 67.0
offset_right = 366.0
offset_bottom = 25.0
size_flags_horizontal = 3
text = "2022-12-24 15:38:19"

[node name="CompletionTimeLabel" type="Label" parent="."]
offset_left = 374.0
offset_right = 672.0
offset_bottom = 25.0
size_flags_horizontal = 3
text = "8.123 Second"

[node name="AccuracyPercentageLabel" type="Label" parent="."]
offset_left = 680.0
offset_right = 979.0
offset_bottom = 25.0
size_flags_horizontal = 3
text = "100%"

[node name="TargetCountLabel" type="Label" parent="."]
offset_left = 987.0
offset_right = 1286.0
offset_bottom = 25.0
size_flags_horizontal = 3
text = "25 Targets"
