[gd_resource type="Environment" load_steps=3 format=3 uid="uid://cvy5p3qu75kqs"]

[sub_resource type="ProceduralSkyMaterial" id="ProceduralSkyMaterial_k3nge"]

[sub_resource type="Sky" id="1"]
sky_material = SubResource("ProceduralSkyMaterial_k3nge")

[resource]
background_mode = 2
sky = SubResource("1")
ambient_light_source = 3
tonemap_mode = 2
sdfgi_use_occlusion = true
glow_levels/1 = 1.0
glow_levels/2 = 1.0
glow_levels/4 = 1.0
glow_levels/6 = 1.0
glow_levels/7 = 1.0
glow_intensity = 1.46
glow_strength = 0.71
glow_bloom = 0.11
glow_blend_mode = 0
