[gd_resource type="ShaderMaterial" load_steps=4 format=3 uid="uid://doahevmdtwe3l"]

[ext_resource type="Shader" path="res://materials/outline_pass_2.gdshader" id="1"]
[ext_resource type="Shader" path="res://materials/outline_pass_1.gdshader" id="2"]

[sub_resource type="ShaderMaterial" id="1"]
render_priority = 127
shader = ExtResource("1")
shader_parameter/color = Color(0.776471, 0.156863, 0.156863, 1)
shader_parameter/bias = -1.0
shader_parameter/thickness = 0.07

[resource]
render_priority = 126
next_pass = SubResource("1")
shader = ExtResource("2")
