[gd_scene load_steps=4 format=3 uid="uid://b1imyyfkdg1pk"]

[ext_resource type="Script" path="res://world_item/environments/bullet_smoke_remover.gd" id="1_av3w5"]

[sub_resource type="FogMaterial" id="FogMaterial_iub83"]
density = -8.0
albedo = Color(0.360784, 0.360784, 0.360784, 1)
emission = Color(0.360784, 0.360784, 0.360784, 1)
edge_fade = 1e-05

[sub_resource type="CylinderMesh" id="CylinderMesh_dirbe"]
lightmap_size_hint = Vector2i(13, 17)
flip_faces = true
add_uv2 = true
top_radius = 0.375
bottom_radius = 0.375

[node name="BulletSmokeRemover" type="Node3D"]
script = ExtResource("1_av3w5")

[node name="FogVolume" type="FogVolume" parent="."]
transform = Transform3D(1, 0, 0, 0, -4.37114e-08, 1, 0, -1, -4.37114e-08, 0, 0, 0)
size = Vector3(1, 0.01, 1)
shape = 2
material = SubResource("FogMaterial_iub83")

[node name="DebugMesh" type="MeshInstance3D" parent="."]
transform = Transform3D(1, 0, 0, 0, -4.37114e-08, 1, 0, -1, -4.37114e-08, 0, 0, 0)
visible = false
mesh = SubResource("CylinderMesh_dirbe")

[node name="KillTimer" type="Timer" parent="."]
wait_time = 0.5
one_shot = true
autostart = true

[connection signal="timeout" from="KillTimer" to="." method="_on_timer_timeout"]
